{
	"query": {
		"fields": {
			"rid": "param:researcherId"
		},
		"unremovable": [
			"researcher"
		],
		"structure": {
			"graph": "RomRepDataStorage",
			"entries": [
				{
					"collection": "researcher",
					"filters": [
						{
							"property": "_id",
							"field": "rid"
						}
					]
				}
			],
			"main": {
				"name": "consultants",
				"title": "Consultants appearing in data file",
				"edge": "hasDataFrom",
				"collection": "consultant",
				"edit": true,
				"properties": [
					{
						"title": "Consultant Name",
						"path": "name",
						"edit": true
					},
					{
						"title": "Date of birth",
						"path": "dateOfBirth",
						"edit": true
					},
					{
						"title": "Permanent residence",
						"path": "residence",
						"edit": true
					},
					{
						"title": "Languages spoken by the consultant",
						"path": "languagesSpoken",
						"edit": true
					}
				],
				"linked": [
					{
						"name": "consentForm",
						"title": "Consent form filled by consultant",
						"edge": "confirms",
						"editEdge": false,
						"collection": "consentForm",
						"edit": false,
						"properties": [
							{
								"title": "Consent file",
								"path": "fileName",
								"edit": true
							}
						]
					}
				]
			}
		}
	}
}
